Get Started with yusufHAIGermany • yusufHAIGermany
…
p_month

Top infection type by month

top_tbl <- sim_monthly |>
  group_by(date, hai) |>
  summarise(cases = sum(cases_month), .groups = "drop") |>
  group_by(date) |>
  slice_max(order_by = cases, n = 1, with_ties = FALSE) |>
  ungroup() |>
  arrange(date)

top_tbl

## # A tibble: 24 × 3
##    date       hai   cases
##    <date>     <chr> <int>
##  1 2011-01-01 UTI   20448
##  2 2011-02-01 UTI   21545
##  3 2011-03-01 UTI   19592
##  4 2011-04-01 UTI   21103
##  5 2011-05-01 UTI   21079
##  6 2011-06-01 UTI   20353
##  7 2011-07-01 UTI   19893
##  8 2011-08-01 UTI   19259
##  9 2011-09-01 UTI   14773
## 10 2011-10-01 UTI   17406
## # ℹ 14 more rows
…
